EESchema Schematic File Version 4
EELAYER 30 0
EELAYER END
$Descr A4 11693 8268
encoding utf-8
Sheet 1 1
Title ""
Date ""
Rev ""
Comp ""
Comment1 ""
Comment2 ""
Comment3 ""
Comment4 ""
$EndDescr
$Comp
L ESP32-footprints-Shem-Lib:ESP32-WROOM U2
U 1 1 5E60F570
P 5700 4800
F 0 "U2" H 5675 6187 60  0000 C CNN
F 1 "ESP32-WROOM" H 5675 6081 60  0000 C CNN
F 2 "ESP32-footprints-Lib:ESP32-WROOM_FAB" H 6050 6150 60  0000 C CNN
F 3 "" H 5250 5250 60  0001 C CNN
	1    5700 4800
	1    0    0    -1  
$EndComp
$Comp
L fab_2020:RES-US1206FAB R2
U 1 1 5E616EF7
P 6050 1500
F 0 "R2" H 6250 1600 45  0000 C CNN
F 1 "10000Ohm" H 6150 1700 45  0000 C CNN
F 2 "fab-R1206FAB" H 5900 1600 20  0000 C CNN
F 3 "" H 6050 1500 50  0001 C CNN
	1    6050 1500
	-1   0    0    1   
$EndComp
$Comp
L fab_2020:LEDFAB1206 M4
U 1 1 5E61C8F0
P 4000 5950
F 0 "M4" H 4077 6042 45  0000 L CNN
F 1 "Red" H 4077 5958 45  0000 L CNN
F 2 "fab-LED1206FAB" H 4030 6100 20  0000 C CNN
F 3 "" H 4000 5950 50  0001 C CNN
	1    4000 5950
	1    0    0    -1  
$EndComp
$Comp
L fab_2020:LEDFAB1206 M2
U 1 1 5E61DAD7
P 4850 6400
F 0 "M2" H 4928 6492 45  0000 L CNN
F 1 "Green" H 4928 6408 45  0000 L CNN
F 2 "fab-LED1206FAB" H 4880 6550 20  0000 C CNN
F 3 "" H 4850 6400 50  0001 C CNN
	1    4850 6400
	1    0    0    -1  
$EndComp
$Comp
L fab_2020:CAP-UNPOLARIZEDFAB C1
U 1 1 5E61F9CE
P 3100 2100
F 0 "C1" V 3100 2250 45  0000 C CNN
F 1 "0.1uf" V 3000 2250 45  0000 C CNN
F 2 "fab-C1206FAB" H 3130 2250 20  0001 C CNN
F 3 "" H 3100 2100 50  0001 C CNN
	1    3100 2100
	0    1    1    0   
$EndComp
$Comp
L fab_2020:CAP-UNPOLARIZEDFAB C3
U 1 1 5E62017C
P 3450 2100
F 0 "C3" V 3450 2250 45  0000 C CNN
F 1 "10uf" V 3350 2250 45  0000 C CNN
F 2 "fab-C1206FAB" H 3480 2250 20  0001 C CNN
F 3 "" H 3450 2100 50  0001 C CNN
	1    3450 2100
	0    1    1    0   
$EndComp
$Comp
L fab_2020:6MM_SWITCH6MM_SWITCH S1
U 1 1 5E620F86
P 6650 1300
F 0 "S1" V 6321 1300 45  0000 C CNN
F 1 "6MM_SWITCH6MM_SWITCH" V 6405 1300 45  0000 C CNN
F 2 "fab-6MM_SWITCH" H 6680 1450 20  0001 C CNN
F 3 "" H 6650 1300 50  0001 C CNN
	1    6650 1300
	0    1    1    0   
$EndComp
$Comp
L fab_2020:RES-US1206FAB R5
U 1 1 5E6232E8
P 4000 6400
F 0 "R5" V 4000 6550 45  0000 C CNN
F 1 "100Ohm" V 4100 6600 45  0000 C CNN
F 2 "fab-R1206FAB" H 4030 6550 20  0000 C CNN
F 3 "" H 4000 6400 50  0001 C CNN
	1    4000 6400
	0    1    1    0   
$EndComp
$Comp
L fab_2020:FTDI-SMD-HEADER M3
U 1 1 5E623FE7
P 1550 1250
F 0 "M3" H 1550 1250 45  0001 C CNN
F 1 "FTDI-SMD-HEADER" H 1550 1250 45  0001 C CNN
F 2 "fab-1X06SMD" H 1580 1400 20  0000 C CNN
F 3 "" H 1550 1250 50  0001 C CNN
	1    1550 1250
	-1   0    0    1   
$EndComp
$Comp
L Connector:Conn_01x09_Female J2
U 1 1 5E6261A6
P 5700 6600
F 0 "J2" H 5728 6626 50  0000 L CNN
F 1 "Conn_01x09_Female" H 5728 6535 50  0000 L CNN
F 2 "Connector_PinHeader_2.54mm:PinHeader_1x09_P2.54mm_Vertical" H 5700 6600 50  0001 C CNN
F 3 "~" H 5700 6600 50  0001 C CNN
	1    5700 6600
	0    1    1    0   
$EndComp
$Comp
L Connector:Conn_01x11_Female J1
U 1 1 5E628B0D
P 3350 4900
F 0 "J1" H 3750 4700 50  0000 L CNN
F 1 "Conn_01x11_Female" H 3378 4835 50  0000 L CNN
F 2 "Connector_PinHeader_2.54mm:PinHeader_1x11_P2.54mm_Vertical" H 3350 4900 50  0001 C CNN
F 3 "~" H 3350 4900 50  0001 C CNN
	1    3350 4900
	-1   0    0    1   
$EndComp
$Comp
L Connector:Conn_01x13_Female J3
U 1 1 5E62B9CE
P 8300 4850
F 0 "J3" H 8328 4876 50  0000 L CNN
F 1 "Conn_01x13_Female" H 8328 4785 50  0000 L CNN
F 2 "Connector_PinHeader_2.54mm:PinHeader_1x13_P2.54mm_Vertical" H 8300 4850 50  0001 C CNN
F 3 "~" H 8300 4850 50  0001 C CNN
	1    8300 4850
	1    0    0    -1  
$EndComp
Text Notes 1050 900  0    50   ~ 0
FTDI-POWER
Text GLabel 4600 2300 2    50   Input ~ 0
GND
Text GLabel 4600 1750 2    50   Input ~ 0
3V3
Text GLabel 4550 5500 0    50   Input ~ 0
GND
Text GLabel 4550 4200 0    50   Input ~ 0
3V3
Wire Wire Line
	4550 4200 4750 4200
Wire Wire Line
	6850 1300 6850 1400
Text GLabel 7050 1400 2    50   Input ~ 0
GND
Wire Wire Line
	6850 1400 7050 1400
Connection ~ 6850 1400
Text GLabel 6000 1300 0    50   Input ~ 0
RESET
Wire Wire Line
	6000 1300 6250 1300
Wire Wire Line
	6250 1500 6250 1300
Connection ~ 6250 1300
Wire Wire Line
	6250 1300 6450 1300
Text GLabel 5650 1500 0    50   Input ~ 0
3V3
Wire Wire Line
	5650 1500 5850 1500
Text GLabel 8650 1300 0    50   Input ~ 0
GND
Wire Wire Line
	6450 1400 6450 1300
Connection ~ 6450 1300
Wire Notes Line
	5250 650  7500 650 
Wire Notes Line
	7500 650  7500 1950
Wire Notes Line
	7500 1950 5250 1950
Wire Notes Line
	5250 1950 5250 650 
Text Notes 5500 800  0    0    ~ 0
RESET BUTTON
Text Notes 5400 750  0    0    ~ 0
RESET BUTTON
Text Notes 5350 800  0    39   ~ 0
RESET BUTTON
Text GLabel 1850 950  2    39   Input ~ 0
RX
Text GLabel 1850 1100 2    39   Input ~ 0
TX
Wire Wire Line
	1550 1350 1700 1350
Wire Wire Line
	1700 1350 1700 950 
Wire Wire Line
	1700 950  1850 950 
Wire Wire Line
	1550 1450 1750 1450
Wire Wire Line
	1750 1100 1850 1100
Wire Wire Line
	1750 1100 1750 1450
$Comp
L fab_2020:CAP-UNPOLARIZEDFAB C2
U 1 1 5E6206D6
P 2000 1450
F 0 "C2" V 2050 1350 45  0000 C CNN
F 1 "10uf" V 1850 1350 45  0000 C CNN
F 2 "fab-C1206FAB" H 2030 1600 20  0000 C CNN
F 3 "" H 2000 1450 50  0001 C CNN
	1    2000 1450
	0    1    1    0   
$EndComp
$Comp
L fab_2020:RES-US1206FAB R1
U 1 1 5E69123A
P 3800 2000
F 0 "R1" V 3700 2100 45  0000 C CNN
F 1 "100" V 3950 2100 45  0000 C CNN
F 2 "fab-R1206FAB" H 3830 2150 20  0001 C CNN
F 3 "" H 3800 2000 50  0001 C CNN
	1    3800 2000
	0    1    1    0   
$EndComp
$Comp
L fab_2020:LEDFAB1206 M1
U 1 1 5E691A3B
P 4150 2050
F 0 "M1" H 4228 2142 45  0000 L CNN
F 1 "LedFAB1206" H 4228 2058 45  0000 L CNN
F 2 "fab-LED1206FAB" H 4180 2200 20  0000 C CNN
F 3 "" H 4150 2050 50  0001 C CNN
	1    4150 2050
	1    0    0    -1  
$EndComp
Wire Wire Line
	3100 1900 3100 1750
Connection ~ 3100 1750
Wire Wire Line
	3100 1750 3450 1750
Wire Wire Line
	3100 2200 3100 2300
Wire Wire Line
	3450 2200 3450 2300
Wire Wire Line
	3450 1900 3450 1750
Connection ~ 3450 1750
Wire Wire Line
	3450 1750 3800 1750
Wire Wire Line
	3800 1800 3800 1750
Connection ~ 3800 1750
Wire Wire Line
	3800 1750 4600 1750
Wire Wire Line
	3800 2200 4000 2200
Wire Wire Line
	4000 2200 4000 1800
Wire Wire Line
	4000 1800 4150 1800
Wire Wire Line
	4150 1800 4150 1850
Wire Wire Line
	4150 2150 4150 2300
Wire Notes Line
	800  650  5000 650 
Wire Notes Line
	5000 650  5000 2500
Wire Notes Line
	5000 2500 800  2500
Wire Notes Line
	800  2500 800  650 
Text GLabel 4300 4300 0    39   Input ~ 0
RESET
Wire Wire Line
	4300 4300 4750 4300
Wire Wire Line
	3550 4400 3800 4400
Wire Wire Line
	3550 4500 4750 4500
Wire Wire Line
	4750 4600 3550 4600
Wire Wire Line
	3550 4700 4750 4700
Wire Wire Line
	3550 4800 4750 4800
Wire Wire Line
	3550 4900 4750 4900
Wire Wire Line
	3550 5000 4750 5000
$Comp
L fab_2020:SLIDE-SWITCH S2
U 1 1 5E6D17E8
P 9200 1400
F 0 "S2" H 9200 1079 45  0000 C CNN
F 1 "SLIDE-SWITCH" H 9200 1163 45  0000 C CNN
F 2 "fab-AYZ0102AGRLC" H 9200 1226 20  0000 C CNN
F 3 "" H 9200 1400 50  0001 C CNN
	1    9200 1400
	-1   0    0    1   
$EndComp
Wire Wire Line
	4750 5100 3550 5100
Wire Wire Line
	3550 5200 4750 5200
Wire Wire Line
	4750 5300 3550 5300
Wire Wire Line
	3550 5400 4000 5400
Wire Wire Line
	7700 4050 7700 4450
Wire Wire Line
	7700 4450 8100 4450
Text GLabel 8100 4000 2    50   Input ~ 0
3V3
Text GLabel 8100 3800 2    50   Input ~ 0
GND
Wire Wire Line
	8100 4350 7950 4350
Wire Wire Line
	7950 4350 7950 3800
Wire Wire Line
	7950 3800 8100 3800
Wire Wire Line
	8100 4250 8000 4250
Wire Wire Line
	8000 4250 8000 4000
Wire Wire Line
	8000 4000 8100 4000
Wire Wire Line
	6600 4150 7600 4150
Wire Wire Line
	7600 4150 7600 4550
Wire Wire Line
	7600 4550 8100 4550
Wire Wire Line
	6600 4250 7000 4250
Wire Wire Line
	7500 4250 7500 4650
Wire Wire Line
	7500 4650 8100 4650
Wire Wire Line
	6600 4350 7100 4350
Wire Wire Line
	7400 4350 7400 4750
Wire Wire Line
	7400 4750 8100 4750
Wire Wire Line
	6600 4450 7300 4450
Wire Wire Line
	7300 4450 7300 4850
Wire Wire Line
	7300 4850 8100 4850
Wire Wire Line
	6600 4650 7200 4650
Wire Wire Line
	7200 4650 7200 4950
Wire Wire Line
	7200 4950 8100 4950
Wire Wire Line
	6600 4750 7100 4750
Wire Wire Line
	7100 4750 7100 5050
Wire Wire Line
	7100 5050 8100 5050
Wire Wire Line
	6600 4850 7000 4850
Wire Wire Line
	7000 4850 7000 5150
Wire Wire Line
	7000 5150 8100 5150
Wire Wire Line
	6600 4950 6900 4950
Wire Wire Line
	6900 4950 6900 5250
Wire Wire Line
	6900 5250 8100 5250
Wire Wire Line
	6600 5050 6850 5050
Wire Wire Line
	6850 5050 6850 5350
Wire Wire Line
	6850 5350 8100 5350
Wire Wire Line
	6600 5150 6750 5150
Wire Wire Line
	6750 5150 6750 5450
Wire Wire Line
	6750 5450 8100 5450
Text GLabel 7300 5600 2    39   Input ~ 0
PROG
Text GLabel 6900 5700 2    50   Input ~ 0
GND
Wire Wire Line
	6600 5250 6700 5250
Wire Wire Line
	6700 5250 6700 5600
Wire Wire Line
	6700 5600 7300 5600
Wire Wire Line
	6600 5350 6650 5350
Wire Wire Line
	6650 5350 6650 5450
Wire Wire Line
	6650 5700 6900 5700
Wire Wire Line
	6600 5450 6650 5450
Connection ~ 6650 5450
Wire Wire Line
	6650 5450 6650 5700
Wire Wire Line
	6150 5850 6150 6150
Wire Wire Line
	6150 6150 6100 6150
Wire Wire Line
	6100 6150 6100 6400
Wire Wire Line
	6050 5850 6050 6150
Wire Wire Line
	6050 6150 6000 6150
Wire Wire Line
	6000 6150 6000 6400
Wire Wire Line
	5950 5850 5950 6150
Wire Wire Line
	5950 6150 5900 6150
Wire Wire Line
	5900 6150 5900 6400
Wire Wire Line
	5850 5850 5850 6150
Wire Wire Line
	5850 6150 5800 6150
Wire Wire Line
	5800 6150 5800 6400
Wire Wire Line
	5750 5850 5750 6150
Wire Wire Line
	5750 6150 5700 6150
Wire Wire Line
	5700 6150 5700 6400
Wire Wire Line
	5650 5850 5650 6150
Wire Wire Line
	5650 6150 5600 6150
Wire Wire Line
	5600 6150 5600 6400
Wire Wire Line
	5550 5850 5550 6150
Wire Wire Line
	5550 6150 5500 6150
Wire Wire Line
	5500 6150 5500 6400
Wire Wire Line
	5450 5850 5450 6150
Wire Wire Line
	5450 6150 5400 6150
Wire Wire Line
	5400 6150 5400 6400
Wire Wire Line
	5350 5850 5350 6150
Wire Wire Line
	5350 6150 5300 6150
Wire Wire Line
	5300 6150 5300 6400
Wire Wire Line
	4550 5500 4700 5500
Wire Wire Line
	5250 5850 5250 6000
Wire Wire Line
	4700 6000 4700 5500
Connection ~ 4700 5500
Wire Wire Line
	4700 5500 4750 5500
Text GLabel 5100 7400 2    50   Input ~ 0
GND
Wire Wire Line
	4850 6500 4850 6650
Wire Wire Line
	4850 7050 4850 7400
Wire Wire Line
	4850 7400 5100 7400
Text GLabel 9700 1400 2    39   Input ~ 0
PROG
Wire Wire Line
	8650 1300 9000 1300
Wire Wire Line
	9400 1400 9700 1400
Wire Notes Line
	8000 650  10450 650 
Wire Notes Line
	10450 650  10450 1950
Wire Notes Line
	10450 1950 8000 1950
Wire Notes Line
	8000 1950 8000 650 
Text Notes 8100 850  0    39   ~ 0
SLIDER SWITCH
Wire Wire Line
	4700 6000 5250 6000
Wire Wire Line
	5300 6150 4850 6150
Wire Wire Line
	4850 6150 4850 6200
Connection ~ 5300 6150
$Comp
L fab_2020:RES-US1206FAB R3
U 1 1 5E622A36
P 4850 6850
F 0 "R3" V 4850 7000 45  0000 C CNN
F 1 "100Ohm" V 4950 7050 45  0000 C CNN
F 2 "fab-R1206FAB" H 4880 7000 20  0000 C CNN
F 3 "" H 4850 6850 50  0001 C CNN
	1    4850 6850
	0    1    1    0   
$EndComp
$Comp
L Regulator_Linear:LT1129-3.3_SOT223_copy U1
U 1 1 5E7A3273
P 2650 1550
F 0 "U1" H 2650 1792 50  0000 C CNN
F 1 "LT1129-3.3_SOT223_copy" H 2650 1701 50  0000 C CNN
F 2 "Package_TO_SOT_SMD:SOT-223-3_TabPin2" H 2650 1701 50  0001 C CIN
F 3 "https://www.analog.com/media/en/technical-documentation/data-sheets/112935ff.pdf" H 2650 1500 50  0001 C CNN
	1    2650 1550
	1    0    0    -1  
$EndComp
Wire Wire Line
	2000 1250 3250 1250
Wire Wire Line
	3250 1250 3250 1550
Wire Wire Line
	3250 1550 2950 1550
Wire Wire Line
	1550 1750 1800 1750
Wire Wire Line
	2250 1750 2250 1550
Wire Wire Line
	2250 1550 2350 1550
Wire Wire Line
	2000 1550 2000 1750
Connection ~ 2000 1750
Wire Wire Line
	2000 1750 2250 1750
Wire Wire Line
	2950 1750 2950 1850
Wire Wire Line
	2950 1850 2650 1850
Wire Wire Line
	2950 1750 3100 1750
Wire Wire Line
	1800 1750 1800 2300
Wire Wire Line
	1800 2300 3100 2300
Connection ~ 1800 1750
Wire Wire Line
	1800 1750 2000 1750
Connection ~ 3100 2300
Wire Wire Line
	3100 2300 3450 2300
Connection ~ 3450 2300
Wire Wire Line
	3450 2300 4150 2300
Connection ~ 4150 2300
Wire Wire Line
	4150 2300 4600 2300
Wire Wire Line
	1550 1550 1850 1550
Wire Wire Line
	1850 1550 1850 1250
Wire Wire Line
	1850 1250 2000 1250
Connection ~ 2000 1250
Wire Wire Line
	4000 5750 4000 5400
Connection ~ 4000 5400
Wire Wire Line
	4000 5400 4750 5400
Wire Wire Line
	4000 6050 4000 6200
Text GLabel 4000 6800 0    50   Input ~ 0
GND
Wire Wire Line
	4000 6600 4000 6800
$Comp
L fab_2020:6MM_SWITCH6MM_SWITCH S3
U 1 1 5E863EFD
P 9500 2900
F 0 "S3" V 9171 2900 45  0000 C CNN
F 1 "6MM_SWITCH6MM_SWITCH" V 9255 2900 45  0000 C CNN
F 2 "fab-6MM_SWITCH" H 9530 3050 20  0000 C CNN
F 3 "" H 9500 2900 50  0001 C CNN
	1    9500 2900
	0    1    1    0   
$EndComp
Text GLabel 9950 3000 2    50   Input ~ 0
GND
$Comp
L fab_2020:RES-US1206FAB R4
U 1 1 5E865D9B
P 8850 3000
F 0 "R4" H 8850 3150 45  0000 C CNN
F 1 "10000Ohm" H 8950 3200 45  0000 C CNN
F 2 "fab-R1206FAB" H 8880 3150 20  0000 C CNN
F 3 "" H 8850 3000 50  0001 C CNN
	1    8850 3000
	-1   0    0    1   
$EndComp
Text GLabel 8450 3000 0    50   Input ~ 0
3V3
Text GLabel 8650 2850 0    39   Input ~ 0
BTN
Wire Wire Line
	8650 2850 9050 2850
Wire Wire Line
	9150 2850 9150 2900
Wire Wire Line
	9150 2900 9300 2900
Wire Wire Line
	9050 3000 9050 2850
Connection ~ 9050 2850
Wire Wire Line
	9050 2850 9150 2850
Wire Wire Line
	8450 3000 8650 3000
Wire Wire Line
	9300 3000 9300 2900
Connection ~ 9300 2900
Wire Wire Line
	9700 2900 9700 3000
Wire Wire Line
	9700 3000 9950 3000
Connection ~ 9700 3000
Wire Notes Line
	8000 2200 10450 2200
Wire Notes Line
	10450 2200 10450 3650
Wire Notes Line
	10450 3650 8000 3650
Wire Notes Line
	8000 3650 8000 2200
Text Notes 8100 2400 0    39   ~ 0
2ND BUTTON
Text GLabel 3800 4100 0    39   Input ~ 0
BTN
Wire Wire Line
	5900 3550 5800 3550
Wire Wire Line
	5800 3550 5800 3650
Text GLabel 6900 3950 0    39   Input ~ 0
RX
Text GLabel 6900 3850 0    39   Input ~ 0
TX
Wire Wire Line
	6900 3850 7100 3850
Wire Wire Line
	7100 3850 7100 4350
Connection ~ 7100 4350
Wire Wire Line
	7100 4350 7400 4350
Wire Wire Line
	6900 3950 7000 3950
Wire Wire Line
	7000 3950 7000 4250
Connection ~ 7000 4250
Wire Wire Line
	7000 4250 7500 4250
Wire Wire Line
	6600 4050 7700 4050
Wire Wire Line
	3800 4100 3800 4400
Connection ~ 3800 4400
Wire Wire Line
	3800 4400 4750 4400
$EndSCHEMATC
